<svg width="24" height="24" viewBox="0 0 24 24" fill="none" xmlns="http://www.w3.org/2000/svg">
<path fill-rule="evenodd" clip-rule="evenodd" d="M2.92153 12.4459C1.84853 9.09595 3.10353 4.93095 6.62053 3.79895C8.47053 3.20195 10.7535 3.69995 12.0505 5.48895C13.2735 3.63395 15.6225 3.20595 17.4705 3.79895C20.9865 4.93095 22.2485 9.09595 21.1765 12.4459C19.5065 17.7559 13.6795 20.5219 12.0505 20.5219C10.4225 20.5219 4.64753 17.8179 2.92153 12.4459Z" stroke="#303335" stroke-width="1.5" stroke-linecap="round" stroke-linejoin="round"/>
<path d="M15.7891 7.56348C16.9961 7.68748 17.7511 8.64448 17.7061 9.98548" stroke="#303335" stroke-width="1.5" stroke-linecap="round" stroke-linejoin="round"/>
</svg>
